{
	"name": "babele",
	"title": "Babele",
	"description": "Module allowing a 'runtime' translation of all the installed compendiums",
	"version": "2.0",
	"minimumCoreVersion" : "0.8.5",
	"compatibleCoreVersion" : "0.8.5",
	"author": "Simone",
	"scripts": [
		"./lib/jszip.min.js",
		"./lib/FileSaver.js",
		"./babele.js"
	],
	"styles": [
	],
	"languages": [{
		"lang": "ar",
		"name": "Arabic",
		"path": "./lang/ar.json"
	}, {
		"lang": "en",
		"name": "English",
		"path": "./lang/en.json"
	}, {
		"lang": "it",
		"name": "Italian",
		"path": "./lang/it.json"
	}, {
		"lang": "es",
		"name": "Español",
		"path": "./lang/es.json"
	}, {
		"lang": "de",
		"name": "Deutsch (German)",
		"path": "./lang/de.json"
	}, {
		"lang": "fr",
		"name": "Français",
		"path": "./lang/fr.json"
	}, {
		"lang": "pl",
		"name": "Polski",
		"path": "./lang/pl.json"
	}],
	"url": "https://gitlab.com/riccisi/foundryvtt-babele",
	"manifest": "https://gitlab.com/riccisi/foundryvtt-babele/raw/master/module/module.json",
	"download": "https://gitlab.com/riccisi/foundryvtt-babele/-/jobs/artifacts/2.0/raw/babele.zip?job=build"
}
